# This file uses centimeters as units for non-parametric coordinates.

mtllib Service panel.mtl
g default
v -0.378715 -0.042727 0.058480
v 0.378715 -0.042727 0.058480
v -0.378715 0.957273 0.058480
v 0.378715 0.957273 0.058480
v -0.378715 0.957273 0.009405
v 0.378715 0.957273 0.009405
v -0.378715 -0.042727 0.009405
v 0.378715 -0.042727 0.009405
v -0.347155 -0.001060 0.085652
v 0.347155 -0.001060 0.085652
v 0.347155 0.915607 0.085652
v -0.347155 0.915607 0.085652
v -0.314754 0.041718 0.117182
v 0.314754 0.041718 0.117182
v 0.314754 0.872829 0.117182
v -0.314754 0.872829 0.117182
v -0.209809 0.083274 0.117182
v 0.209809 0.083274 0.117182
v 0.209809 0.831273 0.117182
v -0.209809 0.831273 0.117182
v -0.209809 0.083274 0.108442
v 0.209809 0.083274 0.108442
v 0.209809 0.831273 0.108442
v -0.209809 0.831273 0.108442
v -0.177249 0.805366 0.108442
v -0.203665 0.818318 0.108442
v -0.197522 0.785093 0.108442
v -0.197522 0.785093 0.068994
v -0.177249 0.805366 0.068994
v 0.177249 0.805366 0.108442
v 0.197522 0.785093 0.108442
v 0.203665 0.818318 0.108442
v 0.177249 0.805366 0.068994
v 0.197522 0.785093 0.068994
v 0.177249 0.109181 0.108442
v 0.203665 0.096228 0.108442
v 0.197522 0.129453 0.108442
v 0.197522 0.129453 0.068994
v 0.177249 0.109181 0.068994
v -0.197522 0.109181 0.108442
v -0.197522 0.109181 0.068994
vt 0.472026 0.001931
vt 0.499843 0.001931
vt 0.499843 0.568756
vt 0.472026 0.568756
vt 0.456624 0.545139
vt 0.456624 0.025549
vt 0.438752 0.520891
vt 0.438752 0.049796
vt 0.506966 0.001931
vt 0.534783 0.001931
vt 0.534783 0.568756
vt 0.506966 0.568756
vt 0.550184 0.025549
vt 0.550184 0.545139
vt 0.568056 0.049796
vt 0.568056 0.520891
vt 0.863556 0.477017
vt 0.863556 0.901003
vt 0.858603 0.901003
vt 0.858603 0.477017
vt 0.847514 0.901003
vt 0.847514 0.477017
vt 0.852467 0.477017
vt 0.852467 0.901003
vt 0.575032 0.488508
vt 0.597393 0.488508
vt 0.597393 0.860142
vt 0.575032 0.860142
vt 0.597393 0.477017
vt 0.575032 0.477017
vt 0.597393 0.871633
vt 0.575032 0.871633
vt 0.568897 0.955872
vt 0.546537 0.955872
vt 0.546537 0.572748
vt 0.568897 0.572748
vt 0.546537 0.967364
vt 0.568897 0.967364
vt 0.970191 0.906347
vt 0.970191 0.477017
vt 0.998008 0.477017
vt 0.998008 0.906347
vt 0.954789 0.888459
vt 0.954789 0.494906
vt 0.936917 0.870093
vt 0.936917 0.513272
vt 0.869691 0.906347
vt 0.869691 0.477017
vt 0.897509 0.477017
vt 0.897509 0.906347
vt 0.912910 0.494906
vt 0.912910 0.888459
vt 0.930782 0.513272
vt 0.930782 0.870093
vt 0.305391 0.810598
vt 0.305391 0.572748
vt 0.310345 0.572748
vt 0.310345 0.810598
vt 0.299256 0.572748
vt 0.299256 0.810598
vt 0.294302 0.810598
vt 0.294302 0.572748
vt 0.288167 0.785178
vt 0.265807 0.785178
vt 0.265807 0.572748
vt 0.288167 0.572748
vt 0.237311 0.572748
vt 0.259671 0.572748
vt 0.259671 0.773687
vt 0.237311 0.773687
vt 0.001992 0.001931
vt 0.431322 0.001931
vt 0.431322 0.568756
vt 0.001992 0.568756
vt 0.575179 0.001931
vt 0.932000 0.001931
vt 0.872515 0.025486
vt 0.634664 0.025486
vt 0.932000 0.473026
vt 0.872515 0.449471
vt 0.575179 0.473026
vt 0.634664 0.449471
vt 0.603528 0.477017
vt 0.841379 0.477017
vt 0.837896 0.484360
vt 0.822923 0.491702
vt 0.610493 0.491702
vt 0.841379 0.901003
vt 0.837896 0.893660
vt 0.834414 0.874827
vt 0.834414 0.503193
vt 0.603528 0.901003
vt 0.610493 0.874827
vt 0.607011 0.893660
vt 0.621984 0.886318
vt 0.822923 0.886318
vt 0.316480 0.572748
vt 0.528910 0.572748
vt 0.540401 0.584239
vt 0.540401 0.955873
vt 0.528910 0.967364
vt 0.327971 0.967364
vt 0.316480 0.955873
vn 0.000000 1.000000 0.000000
vn 0.000000 1.000000 0.000000
vn 0.000000 1.000000 0.000000
vn 0.000000 1.000000 0.000000
vn 0.000000 0.000000 -1.000000
vn 0.000000 0.000000 -1.000000
vn 0.000000 0.000000 -1.000000
vn 0.000000 0.000000 -1.000000
vn 0.000000 -1.000000 0.000000
vn 0.000000 -1.000000 0.000000
vn 0.000000 -1.000000 0.000000
vn 0.000000 -1.000000 0.000000
vn 1.000000 0.000000 0.000000
vn 1.000000 0.000000 0.000000
vn 1.000000 0.000000 0.000000
vn 1.000000 0.000000 0.000000
vn -1.000000 0.000000 0.000000
vn -1.000000 0.000000 0.000000
vn -1.000000 0.000000 0.000000
vn -1.000000 0.000000 0.000000
vn 0.000000 -0.546243 0.837627
vn 0.000000 -0.546243 0.837627
vn 0.000000 -0.561417 0.827533
vn 0.000000 -0.561417 0.827533
vn 0.652466 0.000000 0.757818
vn 0.652466 0.000000 0.757818
vn 0.664140 0.000000 0.747608
vn 0.664140 0.000000 0.747608
vn 0.000000 0.546242 0.837627
vn 0.000000 0.546242 0.837627
vn 0.000000 0.561417 0.827533
vn 0.000000 0.561417 0.827533
vn -0.652466 0.000000 0.757818
vn -0.652466 0.000000 0.757818
vn -0.664140 0.000000 0.747608
vn -0.664140 0.000000 0.747608
vn 0.000000 -0.593308 0.804976
vn 0.000000 -0.593308 0.804976
vn 0.697400 0.000000 0.716682
vn 0.697400 0.000000 0.716682
vn 0.000000 0.593308 0.804976
vn 0.000000 0.593308 0.804976
vn -0.697400 0.000000 0.716682
vn -0.697400 0.000000 0.716682
vn -0.000000 0.000000 1.000000
vn 0.000000 0.000000 1.000000
vn 0.000000 0.000000 1.000000
vn -0.000000 0.000000 1.000000
vn 0.000000 0.000000 1.000000
vn 0.000000 0.000000 1.000000
vn -0.000000 0.000000 1.000000
vn -0.000000 0.000000 1.000000
vn 0.000000 1.000000 0.000000
vn 0.000000 1.000000 0.000000
vn 0.000000 1.000000 0.000000
vn 0.000000 1.000000 0.000000
vn -1.000000 0.000000 0.000000
vn -1.000000 0.000000 0.000000
vn -1.000000 0.000000 0.000000
vn -1.000000 0.000000 0.000000
vn 0.000000 -1.000000 0.000000
vn 0.000000 -1.000000 0.000000
vn 0.000000 -1.000000 0.000000
vn 0.000000 -1.000000 0.000000
vn 1.000000 0.000000 0.000000
vn 1.000000 0.000000 0.000000
vn 1.000000 0.000000 0.000000
vn 1.000000 0.000000 0.000000
vn -0.000000 0.000000 1.000000
vn 0.000000 0.000000 1.000000
vn 0.000000 0.000000 1.000000
vn -0.000000 0.000000 1.000000
vn -0.000000 0.000000 1.000000
vn 0.000000 0.000000 1.000000
vn 0.000000 0.000000 1.000000
vn 0.000000 0.000000 1.000000
vn 0.000000 0.000000 1.000000
vn -0.000000 0.000000 1.000000
vn -0.000000 0.000000 1.000000
vn 0.000000 0.000000 1.000000
vn 0.000000 0.000000 1.000000
vn -0.000000 0.000000 1.000000
vn 0.000000 1.000000 0.000000
vn 0.000000 1.000000 0.000000
vn 0.000000 1.000000 0.000000
vn 0.000000 1.000000 0.000000
vn -1.000000 0.000000 0.000000
vn -1.000000 0.000000 0.000000
vn -1.000000 0.000000 0.000000
vn -1.000000 0.000000 0.000000
vn 0.000000 -1.000000 0.000000
vn 0.000000 -1.000000 0.000000
vn 0.000000 -1.000000 0.000000
vn 0.000000 -1.000000 0.000000
vn 1.000000 0.000000 0.000000
vn 1.000000 0.000000 0.000000
vn 1.000000 0.000000 0.000000
vn 1.000000 0.000000 0.000000
vn 0.707106 -0.707107 0.000000
vn 0.707106 -0.707107 0.000000
vn 0.707106 -0.707107 0.000000
vn 0.707106 -0.707107 0.000000
vn -0.707106 -0.707107 0.000000
vn -0.707106 -0.707107 0.000000
vn -0.707106 -0.707107 0.000000
vn -0.707106 -0.707107 0.000000
vn -0.707106 0.707107 0.000000
vn -0.707106 0.707107 0.000000
vn -0.707106 0.707107 0.000000
vn -0.707106 0.707107 0.000000
vn 0.000000 0.000000 1.000000
vn 0.000000 0.000000 1.000000
vn 0.000000 0.000000 1.000000
vn 0.000000 0.000000 1.000000
vn 0.000000 0.000000 1.000000
vn 0.000000 0.000000 1.000000
vn 0.000000 0.000000 1.000000
s off
g Puzzle_Panel Corridor_Panel
usemtl initialShadingGroup
f 3/39/1 4/40/2 6/41/3 5/42/4
f 5/71/5 6/72/6 8/73/7 7/74/8
f 7/47/9 8/48/10 2/49/11 1/50/12
f 2/1/13 8/2/14 6/3/15 4/4/16
f 7/9/17 1/10/18 3/11/19 5/12/20
s 1
f 1/50/21 2/49/22 10/51/23 9/52/24
s 2
f 2/1/25 4/4/26 11/5/27 10/6/28
s 3
f 4/40/29 3/39/30 12/43/31 11/44/32
s 4
f 3/11/33 1/10/34 9/13/35 12/14/36
s 1
f 9/52/24 10/51/23 14/53/37 13/54/38
s 2
f 10/6/28 11/5/27 15/7/39 14/8/40
s 3
f 11/44/32 12/43/31 16/45/41 15/46/42
s 4
f 12/14/36 9/13/35 13/15/43 16/16/44
s 5
f 13/75/45 14/76/46 18/77/47 17/78/48
f 14/76/46 15/79/49 19/80/50 18/77/47
f 15/79/49 16/81/51 20/82/52 19/80/50
f 16/81/51 13/75/45 17/78/48 20/82/52
s off
f 17/55/53 18/56/54 22/57/55 21/58/56
f 18/17/57 19/18/58 23/19/59 22/20/60
f 19/59/61 20/60/62 24/61/63 23/62/64
f 20/21/65 17/22/66 21/23/67 24/24/68
s 6
f 21/83/69 22/84/70 36/85/71 35/86/72 40/87/73
f 22/84/70 23/88/74 32/89/75 31/90/76 37/91/77 36/85/71
f 23/88/74 24/92/78 26/94/79 25/95/80 30/96/81 32/89/75
f 24/92/78 21/83/69 40/87/73 27/93/82 26/94/79
s off
f 41/63/83 40/64/84 35/65/85 39/66/86
f 38/25/87 37/26/88 31/27/89 34/28/90
f 33/67/91 30/68/92 25/69/93 29/70/94
f 28/33/95 27/34/96 40/35/97 41/36/98
f 25/37/99 27/34/100 28/33/101 29/38/102
s 6
f 25/95/80 26/94/79 27/93/82
s off
f 31/27/103 30/31/104 33/32/105 34/28/106
s 6
f 30/96/81 31/90/76 32/89/75
s off
f 35/29/107 37/26/108 38/25/109 39/30/110
s 6
f 35/86/72 36/85/71 37/91/77
s off
f 41/97/111 39/98/112 38/99/113 34/100/114 33/101/115 29/102/116 28/103/117
