# This file uses centimeters as units for non-parametric coordinates.

mtllib Button Levels.mtl
g default
v 3.573572 8.987702 -3.713007
v 3.554001 9.026113 -3.713007
v 3.523518 9.056598 -3.713007
v 3.485105 9.076170 -3.713007
v 3.442526 9.082913 -3.713007
v 3.399946 9.076170 -3.713007
v 3.361534 9.056598 -3.713007
v 3.331051 9.026113 -3.713007
v 3.311479 8.987702 -3.713007
v 3.304735 8.945123 -3.713007
v 3.311479 8.902541 -3.713007
v 3.331051 8.864129 -3.713007
v 3.361534 8.833646 -3.713007
v 3.399946 8.814075 -3.713007
v 3.442526 8.807332 -3.713007
v 3.485105 8.814075 -3.713007
v 3.523517 8.833646 -3.713007
v 3.554001 8.864129 -3.713007
v 3.573572 8.902541 -3.713007
v 3.580316 8.945123 -3.713007
v 3.442526 8.945123 -3.713007
v 3.442526 8.945123 -3.578156
v 3.573572 8.987702 -3.618607
v 3.562164 8.983995 -3.590003
v 3.534621 8.975046 -3.578156
v 3.554001 9.026113 -3.618607
v 3.544297 9.019063 -3.590003
v 3.520867 9.002041 -3.578156
v 3.523518 9.056598 -3.618607
v 3.516466 9.046893 -3.590003
v 3.499444 9.023462 -3.578156
v 3.485105 9.076170 -3.618607
v 3.481399 9.064761 -3.590003
v 3.472450 9.037218 -3.578156
v 3.442526 9.082913 -3.618607
v 3.442526 9.070916 -3.590003
v 3.442526 9.041958 -3.578156
v 3.399946 9.076170 -3.618607
v 3.403653 9.064761 -3.590003
v 3.412602 9.037218 -3.578156
v 3.361534 9.056598 -3.618607
v 3.368586 9.046893 -3.590003
v 3.385607 9.023462 -3.578156
v 3.331051 9.026113 -3.618607
v 3.340755 9.019063 -3.590003
v 3.364185 9.002041 -3.578156
v 3.311479 8.987702 -3.618607
v 3.322887 8.983995 -3.590003
v 3.350430 8.975046 -3.578156
v 3.304735 8.945123 -3.618607
v 3.316730 8.945123 -3.590003
v 3.345691 8.945123 -3.578156
v 3.311479 8.902541 -3.618607
v 3.322887 8.906250 -3.590003
v 3.350430 8.915198 -3.578156
v 3.331051 8.864129 -3.618607
v 3.340755 8.871182 -3.590003
v 3.364185 8.888205 -3.578156
v 3.361534 8.833646 -3.618607
v 3.368586 8.843352 -3.590003
v 3.385607 8.866779 -3.578156
v 3.399946 8.814075 -3.618607
v 3.403653 8.825484 -3.590003
v 3.412602 8.853026 -3.578156
v 3.442526 8.807332 -3.618607
v 3.442526 8.819325 -3.590003
v 3.442526 8.848286 -3.578156
v 3.485105 8.814075 -3.618607
v 3.481399 8.825484 -3.590003
v 3.472450 8.853026 -3.578156
v 3.523517 8.833646 -3.618607
v 3.516466 8.843352 -3.590003
v 3.499444 8.866779 -3.578156
v 3.554001 8.864129 -3.618607
v 3.544296 8.871182 -3.590003
v 3.520867 8.888205 -3.578156
v 3.573572 8.902541 -3.618607
v 3.562164 8.906250 -3.590003
v 3.534621 8.915198 -3.578156
v 3.580316 8.945123 -3.618607
v 3.568321 8.945123 -3.590003
v 3.539361 8.945123 -3.578156
vt 0.554917 0.001992
vt 0.603707 0.001992
vt 0.603707 0.247034
vt 0.554917 0.247034
vt 0.642429 0.001992
vt 0.642429 0.247034
vt 0.550209 0.321283
vt 0.594752 0.321283
vt 0.500833 0.001992
vt 0.500833 0.247034
vt 0.630102 0.321283
vt 0.500833 0.321283
vt 0.538841 0.352036
vt 0.573131 0.352036
vt 0.446746 0.001992
vt 0.446746 0.247034
vt 0.500833 0.352036
vt 0.451457 0.321283
vt 0.397955 0.001992
vt 0.397955 0.247034
vt 0.462823 0.352036
vt 0.406913 0.321283
vt 0.359234 0.001992
vt 0.359234 0.247034
vt 0.428535 0.352036
vt 0.371563 0.321283
vt 0.679356 0.355731
vt 0.728146 0.355731
vt 0.728146 0.600773
vt 0.679356 0.600773
vt 0.782230 0.355731
vt 0.782230 0.600773
vt 0.688310 0.675021
vt 0.732854 0.675021
vt 0.640634 0.355731
vt 0.640634 0.600773
vt 0.836317 0.355731
vt 0.836317 0.600773
vt 0.782230 0.675021
vt 0.652960 0.675021
vt 0.709932 0.705775
vt 0.744221 0.705775
vt 0.885108 0.355731
vt 0.885108 0.600773
vt 0.831606 0.675021
vt 0.782230 0.705775
vt 0.923828 0.355731
vt 0.923828 0.600773
vt 0.876149 0.675021
vt 0.820240 0.705775
vt 0.911499 0.675021
vt 0.854528 0.705775
vt 0.318463 0.074141
vt 0.343323 0.122930
vt 0.176867 0.177015
vt 0.351889 0.177015
vt 0.279743 0.035419
vt 0.343323 0.231102
vt 0.230951 0.010558
vt 0.318462 0.279893
vt 0.176867 0.001992
vt 0.279742 0.318613
vt 0.122782 0.010558
vt 0.230951 0.343473
vt 0.073990 0.035419
vt 0.176867 0.352038
vt 0.035270 0.074141
vt 0.122782 0.343473
vt 0.010410 0.122930
vt 0.073990 0.318613
vt 0.001844 0.177015
vt 0.035270 0.279893
vt 0.010410 0.231102
vt 0.622665 0.553528
vt 0.605195 0.587817
vt 0.505686 0.515519
vt 0.577984 0.615027
vt 0.628685 0.515519
vt 0.634955 0.609439
vt 0.599605 0.644789
vt 0.543695 0.632500
vt 0.622665 0.477509
vt 0.555062 0.667485
vt 0.505686 0.638519
vt 0.605195 0.443221
vt 0.505686 0.675303
vt 0.467676 0.632500
vt 0.577983 0.416007
vt 0.456309 0.667485
vt 0.433387 0.615027
vt 0.599605 0.386250
vt 0.634955 0.421600
vt 0.543695 0.398537
vt 0.411766 0.644789
vt 0.406176 0.587817
vt 0.555062 0.363553
vt 0.505686 0.392516
vt 0.376416 0.609439
vt 0.388705 0.553528
vt 0.505686 0.355731
vt 0.467676 0.398537
vt 0.382685 0.515519
vt 0.456309 0.363553
vt 0.433387 0.416007
vt 0.388705 0.477509
vt 0.411766 0.386250
vt 0.406176 0.443221
vt 0.376416 0.421600
vt 0.370736 0.675023
vt 0.321945 0.675023
vt 0.321945 0.429981
vt 0.370736 0.429981
vt 0.267861 0.675023
vt 0.267861 0.429981
vt 0.361780 0.355732
vt 0.317237 0.355732
vt 0.213776 0.675023
vt 0.213776 0.429981
vt 0.267861 0.355732
vt 0.164984 0.675023
vt 0.164984 0.429981
vt 0.218484 0.355732
vt 0.173941 0.355732
vt 0.001844 0.678718
vt 0.050635 0.678718
vt 0.050635 0.923760
vt 0.001844 0.923760
vt 0.104721 0.678718
vt 0.104721 0.923760
vt 0.010801 0.998008
vt 0.055344 0.998008
vt 0.158805 0.678718
vt 0.158805 0.923760
vt 0.104721 0.998008
vt 0.207596 0.678718
vt 0.207596 0.923760
vt 0.154097 0.998008
vt 0.198640 0.998008
vn -0.000005 0.000000 -1.000000
vn 0.000000 0.000000 -1.000000
vn -0.000001 0.000000 -1.000000
vn -0.000000 0.000000 -1.000000
vn 0.000005 0.000000 -1.000000
vn 0.000005 0.000000 -1.000000
vn -0.000000 0.000000 -1.000000
vn -0.000000 0.000000 -1.000000
vn 0.000003 0.000000 -1.000000
vn -0.000003 0.000000 -1.000000
vn 0.000000 0.000000 -1.000000
vn -0.000005 0.000000 -1.000000
vn -0.000005 0.000000 -1.000000
vn 0.000000 0.000000 -1.000000
vn 0.000000 0.000000 -1.000000
vn -0.000005 0.000000 -1.000000
vn -0.000005 0.000000 -1.000000
vn 0.000000 0.000000 -1.000000
vn 0.000003 0.000000 -1.000000
vn 0.000003 0.000000 -1.000000
vn 0.000000 0.000000 -1.000000
vn 0.951056 0.309018 0.000000
vn 0.809021 0.587780 0.000000
vn 0.805663 0.585341 0.091007
vn 0.947109 0.307737 0.091008
vn 0.587799 0.809007 0.000000
vn 0.585358 0.805651 0.091009
vn 0.309017 0.951057 0.000000
vn 0.307731 0.947110 0.091014
vn 0.000000 1.000000 0.000000
vn 0.000000 0.995849 0.091020
vn -0.309016 0.951057 0.000000
vn -0.307730 0.947110 0.091016
vn -0.587802 0.809004 0.000000
vn -0.585361 0.805649 0.091010
vn -0.809018 0.587784 0.000000
vn -0.805659 0.585346 0.091012
vn -0.951054 0.309025 0.000000
vn -0.947107 0.307742 0.091010
vn -1.000000 -0.000000 0.000000
vn -0.995850 -0.000000 0.091009
vn -0.951058 -0.309012 0.000000
vn -0.947110 -0.307731 0.091013
vn -0.809017 -0.587786 0.000000
vn -0.805658 -0.585347 0.091022
vn -0.587780 -0.809021 0.000000
vn -0.585340 -0.805662 0.091025
vn -0.308995 -0.951064 0.000000
vn -0.307717 -0.947115 0.091016
vn 0.000000 -1.000000 0.000000
vn 0.000000 -0.995850 0.091007
vn 0.308997 -0.951063 0.000000
vn 0.307719 -0.947114 0.091014
vn 0.587778 -0.809022 0.000000
vn 0.585339 -0.805663 0.091024
vn 0.809018 -0.587783 0.000000
vn 0.805659 -0.585345 0.091018
vn 0.951059 -0.309009 0.000000
vn 0.947111 -0.307729 0.091010
vn 1.000000 0.000000 0.000000
vn 0.995850 0.000000 0.091008
vn 0.174021 0.056540 0.983118
vn 0.148035 0.107550 0.983117
vn -0.000000 0.000000 1.000000
vn 0.107544 0.148020 0.983120
vn 0.056545 0.174016 0.983118
vn 0.000000 0.182972 0.983118
vn -0.056544 0.174016 0.983118
vn -0.107542 0.148022 0.983120
vn -0.148031 0.107551 0.983117
vn -0.174015 0.056540 0.983119
vn -0.182964 -0.000000 0.983120
vn -0.174020 -0.056541 0.983118
vn -0.148031 -0.107545 0.983118
vn -0.107554 -0.148030 0.983117
vn -0.056543 -0.174011 0.983119
vn 0.000000 -0.182973 0.983118
vn 0.056544 -0.174012 0.983119
vn 0.107552 -0.148031 0.983117
vn 0.148026 -0.107544 0.983119
vn 0.174018 -0.056540 0.983118
vn 0.182968 0.000000 0.983119
vn 0.877057 0.284981 0.386727
vn 0.922193 0.000000 0.386730
vn 0.360106 0.117001 0.925546
vn 0.378633 0.000000 0.925547
vn 0.306328 0.222554 0.925545
vn 0.746070 0.542056 0.386724
vn 0.222563 0.306318 0.925546
vn 0.542054 0.746063 0.386740
vn 0.117012 0.360103 0.925545
vn 0.284959 0.877052 0.386754
vn 0.000000 0.378641 0.925544
vn 0.000000 0.922175 0.386772
vn -0.117010 0.360104 0.925545
vn -0.284956 0.877049 0.386762
vn -0.222557 0.306321 0.925546
vn -0.542052 0.746065 0.386739
vn -0.306324 0.222558 0.925545
vn -0.746061 0.542055 0.386743
vn -0.360104 0.117003 0.925546
vn -0.877052 0.284977 0.386740
vn -0.378629 -0.000001 0.925549
vn -0.922191 0.000000 0.386735
vn -0.360110 -0.117003 0.925544
vn -0.877052 -0.284962 0.386752
vn -0.306341 -0.222559 0.925539
vn -0.746056 -0.542034 0.386780
vn -0.222573 -0.306332 0.925539
vn -0.542034 -0.746051 0.386792
vn -0.117014 -0.360112 0.925542
vn -0.284970 -0.877046 0.386760
vn 0.000000 -0.378636 0.925546
vn 0.000002 -0.922196 0.386722
vn 0.117015 -0.360115 0.925540
vn 0.284974 -0.877048 0.386752
vn 0.222568 -0.306331 0.925540
vn 0.542036 -0.746051 0.386788
vn 0.306333 -0.222557 0.925542
vn 0.746062 -0.542035 0.386767
vn 0.360110 -0.117001 0.925544
vn 0.877056 -0.284966 0.386739
s 1
g pCylinder1
usemtl initialShadingGroup
f 2/53/1 1/54/2 21/55/3
f 3/57/4 2/53/1 21/55/3
f 4/59/5 3/57/4 21/55/3
f 5/61/6 4/59/5 21/55/3
f 6/63/7 5/61/6 21/55/3
f 7/65/8 6/63/7 21/55/3
f 8/67/9 7/65/8 21/55/3
f 9/69/10 8/67/9 21/55/3
f 10/71/11 9/69/10 21/55/3
f 11/73/12 10/71/11 21/55/3
f 12/72/13 11/73/12 21/55/3
f 13/70/14 12/72/13 21/55/3
f 14/68/15 13/70/14 21/55/3
f 15/66/16 14/68/15 21/55/3
f 16/64/17 15/66/16 21/55/3
f 17/62/18 16/64/17 21/55/3
f 18/60/19 17/62/18 21/55/3
f 19/58/20 18/60/19 21/55/3
f 20/56/21 19/58/20 21/55/3
f 1/54/2 20/56/21 21/55/3
s 2
f 1/1/22 2/2/23 26/3/24 23/4/25
f 2/2/23 3/5/26 29/6/27 26/3/24
f 3/109/26 4/110/28 32/111/29 29/112/27
f 4/110/28 5/113/30 35/114/31 32/111/29
f 5/113/30 6/117/32 38/118/33 35/114/31
f 6/117/32 7/120/34 41/121/35 38/118/33
f 7/35/34 8/27/36 44/30/37 41/36/35
f 8/27/36 9/28/38 47/29/39 44/30/37
f 9/28/38 10/31/40 50/32/41 47/29/39
f 10/31/40 11/37/42 53/38/43 50/32/41
f 11/37/42 12/43/44 56/44/45 53/38/43
f 12/43/44 13/47/46 59/48/47 56/44/45
f 13/124/46 14/125/48 62/126/49 59/127/47
f 14/125/48 15/128/50 65/129/51 62/126/49
f 15/128/50 16/132/52 68/133/53 65/129/51
f 16/132/52 17/135/54 71/136/55 68/133/53
f 17/23/54 18/19/56 74/20/57 71/24/55
f 18/19/56 19/15/58 77/16/59 74/20/57
f 19/15/58 20/9/60 80/10/61 77/16/59
f 20/9/60 1/1/22 23/4/25 80/10/61
s 3
f 25/74/62 28/75/63 22/76/64
f 28/75/63 31/77/65 22/76/64
f 31/77/65 34/81/66 22/76/64
f 34/81/66 37/84/67 22/76/64
f 37/84/67 40/87/68 22/76/64
f 40/87/68 43/90/69 22/76/64
f 43/90/69 46/95/70 22/76/64
f 46/95/70 49/99/71 22/76/64
f 49/99/71 52/102/72 22/76/64
f 52/102/72 55/105/73 22/76/64
f 55/105/73 58/107/74 22/76/64
f 58/107/74 61/104/75 22/76/64
f 61/104/75 64/101/76 22/76/64
f 64/101/76 67/97/77 22/76/64
f 67/97/77 70/93/78 22/76/64
f 70/93/78 73/88/79 22/76/64
f 73/88/79 76/85/80 22/76/64
f 76/85/80 79/82/81 22/76/64
f 79/82/81 82/78/82 22/76/64
f 82/78/82 25/74/62 22/76/64
s 2
f 23/4/25 24/7/83 81/12/84 80/10/61
s 3
f 24/7/85 25/13/62 82/17/82 81/12/86
f 25/13/62 24/7/85 27/8/87 28/14/63
s 2
f 24/7/83 23/4/25 26/3/24 27/8/88
s 3
f 28/75/63 27/79/87 30/80/89 31/77/65
s 2
f 27/8/88 26/3/24 29/6/27 30/11/90
s 3
f 31/77/65 30/80/89 33/83/91 34/81/66
s 2
f 30/115/90 29/112/27 32/111/29 33/116/92
s 3
f 34/81/66 33/83/91 36/86/93 37/84/67
s 2
f 33/116/92 32/111/29 35/114/31 36/119/94
s 3
f 37/84/67 36/86/93 39/89/95 40/87/68
s 2
f 36/119/94 35/114/31 38/118/33 39/122/96
s 3
f 40/87/68 39/89/95 42/94/97 43/90/69
s 2
f 39/122/96 38/118/33 41/121/35 42/123/98
s 3
f 43/90/69 42/94/97 45/98/99 46/95/70
s 2
f 42/40/98 41/36/35 44/30/37 45/33/100
s 3
f 46/41/70 45/33/99 48/34/101 49/42/71
s 2
f 45/33/100 44/30/37 47/29/39 48/34/102
s 3
f 49/42/71 48/34/101 51/39/103 52/46/72
s 2
f 48/34/102 47/29/39 50/32/41 51/39/104
s 3
f 52/46/72 51/39/103 54/45/105 55/50/73
s 2
f 51/39/104 50/32/41 53/38/43 54/45/106
s 3
f 55/50/73 54/45/105 57/49/107 58/52/74
s 2
f 54/45/106 53/38/43 56/44/45 57/49/108
s 3
f 58/107/74 57/108/107 60/106/109 61/104/75
s 2
f 57/49/108 56/44/45 59/48/47 60/51/110
s 3
f 61/104/75 60/106/109 63/103/111 64/101/76
s 2
f 60/130/110 59/127/47 62/126/49 63/131/112
s 3
f 64/101/76 63/103/111 66/100/113 67/97/77
s 2
f 63/131/112 62/126/49 65/129/51 66/134/114
s 3
f 67/97/77 66/100/113 69/96/115 70/93/78
s 2
f 66/134/114 65/129/51 68/133/53 69/137/116
s 3
f 70/93/78 69/96/115 72/91/117 73/88/79
s 2
f 69/137/116 68/133/53 71/136/55 72/138/118
s 3
f 73/88/79 72/91/117 75/92/119 76/85/80
s 2
f 72/26/118 71/24/55 74/20/57 75/22/120
s 3
f 76/25/80 75/22/119 78/18/121 79/21/81
s 2
f 75/22/120 74/20/57 77/16/59 78/18/122
s 3
f 79/21/81 78/18/121 81/12/86 82/17/82
s 2
f 78/18/122 77/16/59 80/10/61 81/12/84
